latitude,longitude,name,duration
42.96501117,-85.6719942,,30
42.9661800,-85.6720522,,
42.9662781,-85.6716975,,60
42.9660529,-85.6716915,,
42.9651603,-85.6702766,,
42.9645084,-85.6692419,,
42.9637496,-85.6679374,,
42.9632201,-85.6678864,,
42.9632454,-85.669329,,
42.9632684,-85.66559880,,
42.9637646,-85.6659579,,30
42.9643608,-85.6659355,,
42.9643582,-85.6668958,,
42.9643951,-85.6670005,,
42.9654643,-85.6679481,,
42.9663554,-85.6680095,,30
42.9672965,-85.6680487,,
42.9672747,-85.6689617,,
42.9672690,-85.6700979,,
42.9672428,-85.6721733,,
42.9672580,-85.6735707,,30
42.9672310,-85.6742780,,60
42.9672501,-85.6743969,,
42.9669864,-85.6744210,,
42.9665369,-85.6744418,,
42.9665416,-85.6762620,,
42.9657003,-85.6762958,,
42.9646492,-85.6763853,,
42.9646375,-85.6760504,,
42.9646009,-85.6746292,,
42.9645592,-85.6735975,,
42.9645722,-85.6734373,,
42.9645131,-85.6733313,,
42.9642609,-85.6727238,,
42.9649650,-85.6719356,,
42.96501117,-85.6719942,,
