<?xml version="1.0"?>
<gpx version="1.1" creator="Xcode">

  <!--
   Provide one or more waypoints containing a latitude/longitude pair. If you provide one
   waypoint, Xcode will simulate that specific location. If you provide multiple waypoints,
   Xcode will simulate a route visiting each waypoint.
   -->
  <!--
   0.001 deg ~= 6ft
   -->
<wpt lat="42.9187394" lon="-85.8483780"><name>Hager Stops</name></wpt>
</gpx>
